{
  "MailSettings": {
    "ToAddress": "john.jenkins@wsu.edu"
  },
  "ConnectionStrings": {
  "WorldContextConnection": "Server=DESKTOP-CLP9QFP; Database=Nozama;Trusted_Connection=true;MultipleActiveResultSets=true;"
  }
}